課號,課程名稱,開課單位,授課老師,星期,節次,地點
7426,研究方法,資管博日一A,陳怜秀,(二),"9,A,中午",M-309
7427,資訊管理研究議題,資管博日一A,嚴國慶,(二),2-4,M-309
7429,模糊理論與應用,資管博日一A,陳榮昌,(三),A-C,M-309
7440,研究方法論,資管碩日一A,李麗華,(一),4,T2-415
7441,論文寫作,資管碩日一A,李麗華,(一),2-3,T2-415
7442,高等演算法,資管碩日一A,李朱慧,(四),5-7,M-514
7443,高等電子商務,資管碩日一A,薛夙珍,(三)、(四),5-6、8,M-212
7444,多媒體安全研究專題,資管碩日二A,李朱慧,(六),D-E,
7445,多媒體技術研究專題,資管碩日二A,李富民,(六),D-E,
7447,資訊隱藏,資管碩日二A,呂慈純,(四),2-4,M-212
7448,網際網路商務系統研究專題,資管碩日二A,劉熒潔,(六),D-E,
7449,影像處理,資管碩日二A,戴紹國,(五),5-7,M-514
7450,企業資源規劃,資管碩日二A,劉熒潔,(四),2-4,M-514
7451,流程改善方法,資管碩日二A,陳隆昇,(一),5-7,M-309
2474,多媒體概論,資管四日多媒體組一A,洪國龍,(三),7-9,M-514
2475,計算機概論,資管四日多媒體組一A,陳靖國,(四),"5-6,中午",T2-507
2476,程式設計,資管四日多媒體組一A,戴紹國,(三),"5-6,中午",M-514
2479,創意概論,資管四日多媒體組一A,羅有隆,(三),1-3,T2-420
2480,素描,資管四日多媒體組一A,曾崇智,(一),5-6,D-301
2481,資管人的規劃,資管四日多媒體組一A,鄭秀華,(二),6,M-515
2482,攝影,資管四日多媒體組一A,蕭如茵,(二),"9,A-B",E-206
2483,計算機概論,資管四日資管組一B,林芳昌,(三),7-9,G-213
2484,程式設計,資管四日資管組一B,曾顯文,(一),1-3,M-516
2485,微積分,資管四日資管組一B,陳靖國,(三),"5-6,中午",T2-106
2486,會計學,資管四日資管組一B,陳怜秀,(四),"5-6,中午",T2-408
2489,資管人的規劃,資管四日資管組一B,王淑卿,(一),4,M-516
2490,Linux系統,資管四日資管組一B,范揚文,(二),2-4,M-515
2491,計算機概論,資管四日資管組一C,林芳昌,(四),5-6,T1-307
2492,程式設計,資管四日資管組一C,曾顯文,(三),1-3,M-515
2493,微積分,資管四日資管組一C,范揚文,(一),"5-6,中午",T2-704
2494,會計學,資管四日資管組一C,陳怜秀,(三),"5-6,中午",T2-216
2497,資管人的規劃,資管四日資管組一C,李富民,(三),4,M-515
2498,色彩學,資管四日多媒體組二A,莊佳琴,(五),1-3,T2-307
2499,資訊管理導論,資管四日多媒體組二A,柯秀佳,(三),5-6,M-515
2500,技能檢定,資管四日多媒體組二A,洪國龍,(六),中午,
2501,腳本設計,資管四日多媒體組二A,鄒春祥,(三),1-3,M-516
2502,數位繪圖設計,資管四日多媒體組二A,吳信成,(五),5-6,M-516
2503,Web程式設計,資管四日多媒體組二A,呂慈純,(二),1-3,M-516
2504,統計學,資管四日資管組二B,李朱慧,(二),1-3,T2-509.1
2505,程式能力檢定,資管四日資管組二B,洪國龍,(六),中午,
2506,資料結構,資管四日資管組二B,王淑卿,(一),"5-6,中午",M-516
2507,資訊管理導論,資管四日資管組二B,柯秀佳,(一),1-3,M-515
2508,行銷管理,資管四日資管組二B,唐元亮,(四),5-7,T2-509.1
2509,作業管理,資管四日資管組二B,曾淑惠,(二),"5-6,中午",M-514
2510,Web程式設計,資管四日資管組二B,唐元亮,(三)、(五),"5,中午、4",M-516
2511,統計學,資管四日資管組二C,李朱慧,(三),1-3,T1-703
2512,程式能力檢定,資管四日資管組二C,洪國龍,(六),中午,
2513,資料結構,資管四日資管組二C,戴紹國,(四)、(五),8、2-3,T2-406
2514,資訊管理導論,資管四日資管組二C,張景榮,(一),"5-6,中午",M-515
2515,行銷管理,資管四日資管組二C,柯秀佳,(四),5-7,M-516
2516,數位音效,資管四日多媒體組三A,莊佳琴,(四),1-2,M-516
2517,商業英文,資管四日多媒體組三A,李麗華,(一),7-8,T2-415
2518,實務專題與服務學習,資管四日多媒體組三A,李朱慧,(六),C-E,
2519,多媒體網頁設計,資管四日多媒體組三A,羅有隆,(四),"3-4,中午",M-516
2520,軟體工程,資管四日多媒體組三A,李富民,(二),2-4,M-514
2521,商業英文,資管四日資管組三B,劉熒潔,(三),5-6,G-211
2522,實務專題與服務學習,資管四日資管組三B,陳怜秀,(六),C-E,
2523,電腦網路實作,資管四日資管組三B,范揚文,(四),1-2,M-515
2524,作業系統,資管四日資管組三B,洪朝貴,(一),7-9,M-515
2525,財務管理,資管四日資管組三B,王嘉祺,(一),2-4,T2-307
2526,軟體工程,資管四日資管組三B,李富民,(四),5-6,M-515
2527,物流與供應鏈系統,資管四日資管組三B,劉熒潔,(五),2-4,M-515
2528,資訊科技與社會,資管四日資管組三B,洪朝貴,(三),1-2,T2-109
2529,商業英文,資管四日資管組三C,劉熒潔,(五),5-6,G-106
2530,實務專題與服務學習,資管四日資管組三C,陳榮昌,(六),C-E,
2531,電腦網路實作,資管四日資管組三C,范揚文,(四),3-4,M-515
2533,軟體工程,資管四日資管組三C,李富民,(四),7-9,M-515
2534,遊戲程式設計,資管四日資管組三C,唐元亮,(三),7-9,M-516
2535,APP程式設計,資管四日資管組三C,洪國龍,(五),2-4,M-514
2536,專案管理,資管四日多媒體組四A,沈肇基,(一),1-3,T1-507
2537,實務專題與實習,資管四日多媒體組四A,陳隆昇,(六),C-E,
2538,產業實習,資管四日多媒體組四A,曾顯文,(六),"9,A-B",
2539,視覺特效設計,資管四日多媒體組四A,吳信成,(五),1-3,M-516
2540,電腦手繪技巧,資管四日多媒體組四A,蕭淑乙,(五),7-9,M-516
2541,專案管理,資管四日資管組四B,薛夙珍,(一),"5-6,中午",T1-607
2542,實務專題與實習,資管四日資管組四B,戴紹國,(六),C-E,
2543,全面品質管理,資管四日資管組四B,鮑卓璨,(一),7-9,T2-205
2544,顧客關係管理系統,資管四日資管組四B,鄭秀華,(一),7-9,M-514
2545,企業營運流程與ERP應用,資管四日資管組四B,陳正緣,(五),5-7,M-515
2546,專案管理,資管四日資管組四C,薛夙珍,(一),1-3,T2-509.1
2547,實務專題與實習,資管四日資管組四C,范揚文,(六),C-E,
2548,顧客關係管理系統,資管四日資管組四C,鄭秀華,(一)、(五),"5,中午、中午",M-514
7781,研究方法論,資管碩在一A,王淑卿,(六),4,M-309
7782,論文寫作,資管碩在一A,王淑卿,(六),2-3,M-309
7783,高等資料庫系統,資管碩在一A,陳靖國,(二),B-D,M-309
7784,碩士論文,資管碩在二A,呂慈純,,,
7785,決策支援研究專題,資管碩在二A,李麗華,(六),D-E,
3517,計算機概論,資管四進一A,林芳昌,(二)、(四),E、D-E,T2-406.1
3518,影像處理實務,資管四進一A,陳榮昌,(三)、(五),D、A-B,M-516
3521,創意概論,資管四進一A,羅有隆,(二),B-D,T2-307
3522,程式設計,資管四進一A,唐元亮,(四),A-C,M-515
3523,資管人的規劃,資管四進一A,戴紹國,(一),C T,T2-208
3524,數位媒體設計,資管四進一A,李政雄,(三),A-C,M-516
3525,資訊管理導論,資管四進二A,張景榮,(二),B-D,M-515
3526,數位繪圖設計,資管四進二A,洪國龍,(四),C-E,M-516
3527,技能檢定,資管四進二A,洪國龍,(六),中午,
3528,商業簡報設計,資管四進二A,陳榮昌,(四),A-B,M-516
3529,作業管理,資管四進二A,李政雄,(三),D-E,M-515
3530,素描,資管四進二A,陳麗桂,(一),A-C,D-301
3531,產業實習(一),資管四進二A,洪朝貴,(六), 9-B,
3532,商業英文,資管四進三A,林懷真,(二),B-C,M-516
3533,多媒體網頁設計,資管四進三A,梁榕芸,(四),C-E,M-514
3534,多媒體應用系統,資管四進三A,陳麗桂,(三),A-C,M-514
3535,財務管理,資管四進三A,王嘉祺,(一),A-C,T2-509.1
3536,軟體工程,資管四進三A,廖淑瑩,(五),A-C,M-514
3537,專案管理,資管四進四A,沈肇基,(一),A-C,G-114
3538,顧客關係管理系統,資管四進四A,黃蜀雯,(二),B-D,M-514
